<?xml version="1.0" encoding="iso-8859-1"?>
<!-- Generator: Adobe Illustrator 21.0.2, SVG Export Plug-In . SVG Version: 6.00 Build 0)  -->
<svg version="1.1" id="Layer_1" xmlns="http://www.w3.org/2000/svg" xmlns:xlink="http://www.w3.org/1999/xlink" x="0px" y="0px"
	 viewBox="0 0 512 512" style="enable-background:new 0 0 512 512;" xml:space="preserve">
<rect x="16" y="15" style="fill:none;stroke:#0084B6;stroke-width:30;stroke-miterlimit:10;" width="481" height="481"/>
<g>
	<path style="fill:#0092BF;" d="M310.111,272.7c0,4.039-3.297,7.335-7.335,7.335c-4.038,0-7.335-3.297-7.335-7.335
		s3.297-7.335,7.335-7.335C306.815,265.365,310.111,268.661,310.111,272.7L310.111,272.7z"/>
	<path style="fill:#0092BF;" d="M324.736,192.106c0,4.048-3.251,7.335-7.29,7.335c-4.084,0-7.335-3.288-7.335-7.335
		c0-4.039,3.25-7.335,7.335-7.335C321.485,184.771,324.736,188.068,324.736,192.106L324.736,192.106z"/>
	<path style="fill:#0092BF;" d="M354.076,192.106c0,4.048-3.297,7.335-7.335,7.335c-4.048,0-7.335-3.288-7.335-7.335
		c0-4.039,3.288-7.335,7.335-7.335C350.78,184.771,354.076,188.068,354.076,192.106L354.076,192.106z"/>
	<path style="fill:#0092BF;" d="M339.406,177.482c0,4.039-3.288,7.289-7.335,7.289c-4.039,0-7.335-3.251-7.335-7.289
		c0-4.084,3.297-7.335,7.335-7.335C336.118,170.147,339.406,173.398,339.406,177.482L339.406,177.482z"/>
	<path style="fill:#0092BF;" d="M354.076,162.811c0,4.039-3.297,7.335-7.335,7.335c-4.048,0-7.335-3.297-7.335-7.335
		s3.288-7.335,7.335-7.335C350.78,155.477,354.076,158.773,354.076,162.811L354.076,162.811z"/>
	<path style="fill:#0092BF;" d="M324.736,221.4c0,4.085-3.251,7.335-7.29,7.335c-4.084,0-7.335-3.25-7.335-7.335
		c0-4.039,3.25-7.289,7.335-7.289C321.485,214.111,324.736,217.362,324.736,221.4L324.736,221.4z"/>
	<path style="fill:#0092BF;" d="M310.111,206.776c0,4.039-3.297,7.335-7.335,7.335c-4.038,0-7.335-3.297-7.335-7.335
		c0-4.048,3.297-7.335,7.335-7.335C306.815,199.442,310.111,202.729,310.111,206.776L310.111,206.776z"/>
	<path style="fill:#0092BF;" d="M339.406,206.776c0,4.039-3.288,7.335-7.335,7.335c-4.039,0-7.335-3.297-7.335-7.335
		c0-4.048,3.297-7.335,7.335-7.335C336.118,199.441,339.406,202.729,339.406,206.776L339.406,206.776z"/>
	<path style="fill:#0092BF;" d="M310.111,294.659c0,4.084-3.297,7.335-7.335,7.335c-4.038,0-7.335-3.251-7.335-7.335
		c0-4.039,3.297-7.289,7.335-7.289C306.815,287.37,310.111,290.621,310.111,294.659L310.111,294.659z"/>
	<path style="fill:#0092BF;" d="M310.111,316.664c0,4.039-3.297,7.335-7.335,7.335c-4.038,0-7.335-3.297-7.335-7.335
		c0-4.048,3.297-7.335,7.335-7.335C306.815,309.33,310.111,312.617,310.111,316.664L310.111,316.664z"/>
	<path style="fill:#0092BF;" d="M310.111,338.624c0,4.047-3.297,7.335-7.335,7.335c-4.038,0-7.335-3.288-7.335-7.335
		c0-4.039,3.297-7.335,7.335-7.335C306.815,331.289,310.111,334.586,310.111,338.624L310.111,338.624z"/>
	<path style="fill:#0092BF;" d="M310.111,360.629c0,4.039-3.297,7.289-7.335,7.289c-4.038,0-7.335-3.25-7.335-7.289
		c0-4.084,3.297-7.335,7.335-7.335C306.815,353.293,310.111,356.545,310.111,360.629L310.111,360.629z"/>
	<path style="fill:#0092BF;" d="M310.111,382.589c0,4.039-3.297,7.335-7.335,7.335c-4.038,0-7.335-3.297-7.335-7.335
		c0-4.039,3.297-7.335,7.335-7.335C306.815,375.253,310.111,378.55,310.111,382.589L310.111,382.589z"/>
	<path style="fill:#0092BF;" d="M236.852,104.222h-36.629c-8.086,0-14.67,6.538-14.67,14.624c0,8.086,6.584,14.67,14.67,14.67
		h36.629c8.086,0,14.624-6.584,14.624-14.67S244.939,104.222,236.852,104.222L236.852,104.222z"/>
	<path style="fill:#0092BF;" d="M236.852,155.477h-73.259c-8.086,0-14.67,6.584-14.67,14.67c0,8.086,6.584,14.624,14.67,14.624
		h73.259c8.086,0,14.624-6.538,14.624-14.624C251.477,162.061,244.939,155.477,236.852,155.477L236.852,155.477z"/>
	<path style="fill:#0092BF;" d="M236.852,206.776H126.964c-8.086,0-14.67,6.548-14.67,14.624c0,8.086,6.584,14.67,14.67,14.67
		h109.888c8.086,0,14.624-6.584,14.624-14.67C251.477,213.324,244.939,206.776,236.852,206.776L236.852,206.776z"/>
	<path style="fill:#0092BF;" d="M236.852,258.03H97.67c-8.086,0-14.67,6.584-14.67,14.67c0,8.086,6.584,14.67,14.67,14.67h139.183
		c8.086,0,14.624-6.584,14.624-14.67C251.477,264.614,244.939,258.03,236.852,258.03L236.852,258.03z"/>
	<path style="fill:#0092BF;" d="M236.852,309.329h-95.264c-8.077,0-14.624,6.584-14.624,14.67c0,8.077,6.547,14.624,14.624,14.624
		h95.264c8.086,0,14.624-6.547,14.624-14.624C251.477,315.913,244.939,309.329,236.852,309.329L236.852,309.329z"/>
	<path style="fill:#0092BF;" d="M236.852,360.629h-51.3c-8.086,0-14.624,6.538-14.624,14.624c0,8.086,6.538,14.67,14.624,14.67h51.3
		c8.086,0,14.624-6.584,14.624-14.67C251.477,367.167,244.939,360.629,236.852,360.629L236.852,360.629z"/>
	<path style="fill:#0092BF;" d="M420,118.848V52.923H280.817c-8.086,0-14.67,6.584-14.67,14.67c0,8.076,6.584,14.624,14.67,14.624
		h109.889v36.629c0,51.904-30.942,98.304-78.772,118.294c-0.961,0.394-1.859,0.861-2.683,1.429c-0.247,0.183-0.43,0.357-0.678,0.541
		c-0.54,0.394-1.035,0.824-1.502,1.291c-0.321,0.284-0.577,0.641-0.824,0.962c-0.357,0.394-0.714,0.787-0.998,1.218
		c-0.366,0.54-0.651,1.145-0.934,1.712c-0.11,0.293-0.284,0.504-0.43,0.788v0.036c-0.357,0.898-0.641,1.796-0.824,2.757
		c-0.1,0.43-0.1,0.861-0.138,1.291c-0.036,0.532-0.147,1.035-0.147,1.575c0,0.494,0.073,0.998,0.147,1.539
		c0.036,0.421,0.064,0.851,0.138,1.282c0.183,0.971,0.467,1.859,0.824,2.757c0,0,0,0.036,0.037,0.036
		c0,0.036,0.036,0.073,0.036,0.11c0.503,1.172,1.181,2.216,1.969,3.214c0.211,0.247,0.394,0.504,0.568,0.751
		c0.824,0.934,1.759,1.759,2.829,2.472c0.138,0.101,0.321,0.174,0.467,0.247c0.641,0.394,1.282,0.787,1.997,1.108
		c47.939,19.963,78.918,66.391,78.918,118.331v36.63H280.817c-8.086,0-14.67,6.584-14.67,14.67c0,8.077,6.584,14.624,14.67,14.624
		H420v-65.923c0-54.047-27.371-103.167-71.51-131.848C392.629,222.014,420,172.903,420,118.848L420,118.848z"/>
</g>
</svg>
