<?xml version="1.0" encoding="utf-8"?>
<!-- Generator: Adobe Illustrator 21.0.2, SVG Export Plug-In . SVG Version: 6.00 Build 0)  -->
<svg version="1.1" id="Layer_1" xmlns="http://www.w3.org/2000/svg" xmlns:xlink="http://www.w3.org/1999/xlink" x="0px" y="0px"
	 viewBox="0 0 512 512" style="enable-background:new 0 0 512 512;" xml:space="preserve">
<style type="text/css">
	.st0{fill:none;stroke:#0084B6;stroke-width:40;stroke-miterlimit:10;}
	.st1{fill:#0084B6;}
</style>
<rect x="18" y="18" class="st0" width="476" height="476"/>
<g>
	<path class="st1" d="M218.2,173.4c3.6-0.8,7.2-1.2,11-1.2c3.8,0,7.4,0.4,11,1.2v-41.4l38.2-38.2l-15.5-15.6l-22.6,22.6V76.5h-22
		v24.3l-22.6-22.6L180,93.8l38.1,38.2L218.2,173.4L218.2,173.4z"/>
	<path class="st1" d="M290.1,235.4v-22h-9.9c0.8,3.6,1.2,7.2,1.2,11c0,3.8-0.4,7.4-1.2,11H290.1z"/>
	<path class="st1" d="M240.2,372.4V348l16.5,16.5c-0.2-2.3-0.3-4.6-0.3-6.9c0-7.9,0.9-15.2,2.6-21.8l-18.8-18.8v-41.5
		c-3.6,0.8-7.2,1.2-11,1.2c-3.8,0-7.4-0.4-11-1.2v41.5L180,355.1l15.5,15.5l22.6-22.6v24.4H240.2z"/>
	<path class="st1" d="M82.9,258l15.6,15.5l38.2-38.2h41.5c-0.8-3.5-1.2-7.2-1.2-11c0-3.8,0.4-7.5,1.2-11h-41.5l-38.2-38.2
		l-15.6,15.5l22.6,22.6H81.2v22h24.3L82.9,258z"/>
	<path class="st1" d="M101.7,167.3l54-0.2l29.5,29.2c4-6.2,9.3-11.6,15.5-15.6l-29.4-29.2l-0.3-54l-22,0.1l0.1,32l-17.3-17.1
		l-15.5,15.6l17.3,17.1l-32,0.2L101.7,167.3z"/>
	<path class="st1" d="M273.2,196.3l16.9-16.8v-43.8c0-16.9,7.8-28.5,19.3-34.3l0-3.8l-22-0.1l-0.2,54l-29.4,29.2
		C263.9,184.7,269.1,190.1,273.2,196.3L273.2,196.3z"/>
	<path class="st1" d="M257.7,268.2l27.3,27.1c1.7-1.4,3.3-2.9,5.1-4.2v-21.7l-16.9-16.8C269.1,258.8,263.9,264.1,257.7,268.2
		L257.7,268.2z"/>
	<path class="st1" d="M155.7,281.7l-54-0.2l-0.1,22l32,0.1l-17.3,17.1l15.5,15.6l17.3-17.1l-0.1,32l22,0.1l0.3-54l29.4-29.2
		c-6.2-4.1-11.5-9.4-15.5-15.7L155.7,281.7z"/>
	<path class="st1" d="M269,224.4c0,22-17.9,39.9-39.9,39.9c-22,0-39.9-17.9-39.9-39.9c0-22,17.8-39.9,39.9-39.9
		C251.2,184.5,269,202.4,269,224.4L269,224.4z"/>
	<path class="st1" d="M332,157v80.5h22.9V157c0-5.3-0.7-9-1.7-11.6c-2.6-6.5-7.3-6.5-9.7-6.5c-2.4,0-7.1,0-9.7,6.4
		C332.8,147.9,332,151.6,332,157L332,157z"/>
	<path class="st1" d="M304.3,142.9v156.9c-6.5,4.1-12.2,9.2-17.1,15.1c-7.9,9.3-13.5,20.6-16.1,33c-1,4.8-1.7,9.8-1.7,14.9
		c0,0.4,0.1,0.7,0.1,1.1c0.6,40.7,33.7,73.6,74.6,73.6c5.2,0,10.3-0.5,15.2-1.5c33.9-7,59.5-37.1,59.5-73.1
		c0-27.4-14.8-51.3-36.9-64.3V142.9c0-18.5-12.9-33.9-30.2-37.8c-2.8-0.6-5.6-1-8.6-1c-14.5,0-27.2,8-33.9,19.9
		C306.1,129.6,304.3,136,304.3,142.9L304.3,142.9z M343.5,132.7c13.4,0,17.6,10.9,17.6,24.3v164.7c18.5,4.7,28.2,20.7,29.6,36.6
		c0.2,1.2,0.3,2.5,0.3,3.7c0,25.9-21,46.8-46.8,46.8c-25.9,0-46.8-21-46.8-46.8c0-1.3,0.1-2.5,0.3-3.7c0.2-2.5,0.6-4.8,1.1-7.1
		c1.9-7.4,5.4-13.9,10.6-18.9c2.2-2.2,4.8-4,7.5-5.6c2.8-1.7,5.8-3.2,9.1-4.2V157c0-4.3,0.5-8.3,1.5-11.8c0.5-1.6,1.1-3,1.7-4.4
		c1.5-2.8,3.7-5.1,6.6-6.5C337.9,133.3,340.4,132.7,343.5,132.7L343.5,132.7z"/>
	<path class="st1" d="M367.2,392c9-10.4,13.3-23.2,12.1-35.8c-0.8-8.6-17.3-8.6-16.4,0c1,10.6-2.3,20.4-9.9,29.1
		C346.9,392.3,361.1,399,367.2,392L367.2,392z"/>
</g>
</svg>
