<?xml version="1.0" encoding="iso-8859-1"?>
<!-- Generator: Adobe Illustrator 21.0.2, SVG Export Plug-In . SVG Version: 6.00 Build 0)  -->
<svg version="1.1" id="Layer_1" xmlns="http://www.w3.org/2000/svg" xmlns:xlink="http://www.w3.org/1999/xlink" x="0px" y="0px"
	 viewBox="-49 141 512 512" style="enable-background:new -49 141 512 512;" xml:space="preserve">
<rect x="-31" y="159" style="fill:none;stroke:#0084B6;stroke-width:40;stroke-miterlimit:10;" width="476" height="476"/>
<g>
	<g>
		<defs>
			<rect id="SVGID_1_" x="51.67" y="252" width="310.661" height="302.763"/>
		</defs>
		<clipPath id="SVGID_2_">
			<use xlink:href="#SVGID_1_"  style="overflow:visible;"/>
		</clipPath>
		<path style="clip-path:url(#SVGID_2_);fill:#0084B6;" d="M358.153,513.886l-62.185-172.978
			c-9.89-23.207-21.667-35.805-44.55-35.805h-2.295c0.807-3.326,1.268-6.788,1.268-10.351c0-24.682-20.088-44.752-44.769-44.752
			c-24.664,0-44.752,20.07-44.752,44.752c0,3.563,0.461,7.025,1.268,10.351h-5.366c-22.9,0-32.207,17.038-38.359,35.805
			L54.171,513.886c-11.395,31.299,18.565,35.787,41.448,35.787h221.087C339.588,549.674,366.104,541.038,358.153,513.886
			L358.153,513.886z M181.59,294.752c0-13.251,10.781-24.032,24.032-24.032c13.264,0,24.046,10.781,24.046,24.032
			c0,3.716-0.873,7.214-2.383,10.351h-43.313C182.467,301.965,181.59,298.468,181.59,294.752L181.59,294.752z M181.59,294.752"/>
	</g>
</g>
</svg>
