<?xml version="1.0" encoding="iso-8859-1"?>
<!-- Generator: Adobe Illustrator 21.0.2, SVG Export Plug-In . SVG Version: 6.00 Build 0)  -->
<svg version="1.1" id="Layer_1" xmlns="http://www.w3.org/2000/svg" xmlns:xlink="http://www.w3.org/1999/xlink" x="0px" y="0px"
	 viewBox="-49 141 512 512" style="enable-background:new -49 141 512 512;" xml:space="preserve">
<g>
	<path style="fill:#FFFFFF;" d="M206.984,141c-103.925,0-188.482,84.557-188.482,188.482c0,27.123,5.554,53.014,16.479,76.96
		c47.126,103.106,137.492,211.996,164.071,242.904c1.972,2.325,4.886,3.655,7.932,3.655c3.072,0,5.967-1.33,7.958-3.655
		c26.559-30.908,116.926-139.772,164.051-242.904c10.951-23.946,16.505-49.837,16.505-76.96
		C395.472,225.557,310.915,141,206.984,141L206.984,141z M206.984,427.394c-53.983,0-97.912-43.929-97.912-97.912
		c0-53.983,43.929-97.912,97.912-97.912c53.99,0,97.919,43.929,97.919,97.912C304.902,383.465,260.973,427.394,206.984,427.394
		L206.984,427.394z M206.984,427.394"/>
</g>
</svg>
